<svg id="Canada" xmlns="http://www.w3.org/2000/svg" width="134.266" height="32" viewBox="0 0 134.266 32">
  <path id="Path_101" data-name="Path 101" d="M257.016.4h4.89v9.733h-4.89Zm-8.429,4.89-.279.093s1.677,1.4,1.677,1.49c.093.093.186.093.093.373l-.186.559s1.49-.279,1.677-.373c.186,0,.279,0,.279.186s-.093,1.77-.093,1.77h.466s-.093-1.677-.093-1.77c0-.186.093-.186.279-.186s1.677.373,1.677.373a3.666,3.666,0,0,0-.186-.559c-.093-.279,0-.279.093-.373s1.677-1.49,1.677-1.49l-.279-.093c-.186-.093-.093-.186-.093-.279s.279-1.025.279-1.025-.745.186-.838.186-.186,0-.186-.093a2.391,2.391,0,0,0-.186-.466s-.838.931-.931,1.025c-.186.186-.373,0-.279-.186,0-.186.466-2.142.466-2.142s-.466.279-.652.373-.279.093-.279-.093c-.093-.186-.652-1.211-.652-1.3l-.652,1.3c-.093.186-.186.186-.279.093-.186-.093-.652-.373-.652-.373s.466,1.956.466,2.142-.093.279-.279.186L249.7,3.613a1.326,1.326,0,0,1-.186.373c0,.093-.093.186-.186.093a8.068,8.068,0,0,1-.931-.186,7.082,7.082,0,0,0,.373,1.025A.372.372,0,0,1,248.587,5.29ZM242.3.4h4.89v9.733H242.3Z" transform="translate(-129.458 -0.208)" fill="#ed1c24"/>
  <path id="Path_102" data-name="Path 102" d="M133.465,29.472a1.8,1.8,0,0,1-1.583,1.118c-.559,0-2.235-.093-2.235-4.517V16.619c0-2.887-2.235-5.262-8.057-5.262-6.287,0-6.38,3.074-6.38,3.865-.093.838.373,1.77,1.956,1.77,1.4,0,1.77-1.583,1.956-2.142.186-.652.279-2.515,2.794-2.515,2.142,0,3.493,1.863,3.586,4.61v1.49h0v.093a2.239,2.239,0,0,1-1.49,1.77,28.024,28.024,0,0,1-4.8,1.118c-1.3.279-4.983,1.211-4.89,5.076.093,3.772,3.865,5.076,6.473,4.983a7.584,7.584,0,0,0,4.7-1.677c.373-.279.373-.279.652.093.373.373,1.583,1.583,4.517,1.583,2.98,0,3.4-1.4,3.586-1.863A.407.407,0,0,0,133.465,29.472ZM121.73,30.5a3.129,3.129,0,0,1-3.26-3.26,5.751,5.751,0,0,1,3.167-4.7,24.76,24.76,0,0,1,3.586-1.677h.186a.325.325,0,0,1,.093.186h0v.093h0v.093h0v3.912C125.5,28.215,124.012,30.5,121.73,30.5Zm-8.615-.093c-.373-.093-2.7.186-2.7-6.939V1.065c0-.279,0-1.025-.838-1.025S103.1.32,102.729.413c-.373,0-.652.466,0,.466.652.093,3.679.279,3.679,5.262v6.846c0,.186,0,.279-.093.373v.093h0c-.093.093-.186,0-.466-.186a9.723,9.723,0,0,0-15.182,8.057c0,7.032,4.983,10.432,10.152,10.432a9.718,9.718,0,0,0,4.983-1.49c.745-.466.652-.373.745.279.093.466,0,1.4,1.3,1.3,1.4-.186,4.8-.559,5.449-.652C113.859,30.869,113.673,30.5,113.114,30.4Zm-11.642.279c-4.145,0-6.287-4.89-6.287-9.547,0-5.169,2.887-8.615,6.008-8.429,4.052.279,5.076,3.493,5.169,9.174v1.211C106.269,28.681,103.94,30.683,101.472,30.683ZM90.528,29.472a1.8,1.8,0,0,1-1.583,1.118c-.559,0-2.235-.093-2.235-4.517V16.619c0-2.887-2.235-5.262-8.057-5.262-6.287,0-6.38,3.074-6.38,3.865-.093.838.373,1.77,1.956,1.77,1.4,0,1.77-1.583,1.956-2.142.186-.652.279-2.515,2.794-2.515,2.142,0,3.586,1.863,3.586,4.7v.931a2.365,2.365,0,0,1-1.583,2.422,28.025,28.025,0,0,1-4.8,1.118c-1.3.279-4.983,1.211-4.89,5.076.093,3.772,3.865,5.076,6.473,4.983a7.584,7.584,0,0,0,4.7-1.677c.373-.279.373-.279.652.093.373.373,1.583,1.583,4.517,1.583,2.98,0,3.4-1.4,3.586-1.863C91.366,29.24,90.807,28.96,90.528,29.472ZM78.886,30.5a3.129,3.129,0,0,1-3.26-3.26,5.751,5.751,0,0,1,3.167-4.7,24.762,24.762,0,0,1,3.586-1.677h.186v.093h0v4.331C82.518,28.215,81.028,30.5,78.886,30.5ZM69.851,30.4c-.745-.186-2.049-1.025-2.049-5.169v-7.5c0-1.77.186-6.38-6.846-6.38a9.508,9.508,0,0,0-5.914,1.956c-.279.279-.466.373-.559-.093-.093-.373-.279-.931-.373-1.3-.093-.279-.279-.559-.931-.466s-4.8.745-5.542.931c-.652.186-.466.466,0,.559s2.7.279,2.7,4.145v8.057c0,4.7-.931,5.076-1.77,5.356-1.118.279-.559.652-.093.652H57c.559,0,.838-.559-.279-.745s-2.142-.838-2.142-4.517V20.717c0-1.956-.466-7.963,4.983-8.057,3.865-.093,4.238,3.074,4.238,5.169v7.963c0,3.26-.931,4.331-2.049,4.517-1.025.186-.838.652-.279.652h8.709C70.643,31.149,71.108,30.683,69.851,30.4Zm-22.773-.931A1.8,1.8,0,0,1,45.5,30.59c-.559,0-2.235-.093-2.235-4.517V16.619c0-2.887-2.235-5.262-8.057-5.262-6.287,0-6.38,3.074-6.38,3.865-.093.838.373,1.77,1.956,1.77,1.4,0,1.77-1.583,1.956-2.142.186-.652.279-2.515,2.794-2.515,2.142,0,3.493,1.863,3.586,4.61V17.97a.7.7,0,0,1-.093.466v.093h0a2.239,2.239,0,0,1-1.49,1.77,28.024,28.024,0,0,1-4.8,1.118c-1.3.279-4.983,1.211-4.89,5.076.093,3.772,3.865,5.076,6.473,4.983a7.584,7.584,0,0,0,4.7-1.677c.373-.279.373-.279.652.093.373.373,1.583,1.583,4.517,1.583,2.98,0,3.4-1.4,3.586-1.863C47.917,29.24,47.265,28.96,47.078,29.472ZM35.343,30.5a3.129,3.129,0,0,1-3.26-3.26c0-1.118.559-3.167,3.167-4.7a24.761,24.761,0,0,1,3.586-1.677h.186a.325.325,0,0,1,.093.186h0v.186h0v.093h0v3.958C39.115,28.215,37.625,30.5,35.343,30.5Zm-8.988-8.2c-.931,2.98-2.7,7.87-9.174,8.057-6.753.093-10.8-4.517-10.99-13.04C5.911,8.237,9.869,1.3,15.923,1.111c6.846-.093,9.267,8.057,9.361,9.267a.655.655,0,1,0,1.3-.093c0-.466-.559-8.522-.745-9.454S24.911.273,24.725.646c-.047.279.14-.279-.233.559s-1.4.373-1.77.279A14.437,14.437,0,0,0,15.97-.006C7.96.18-.19,6.094,0,16.433A15.514,15.514,0,0,0,15.737,31.987c6.846-.093,10.711-4.424,11.829-9.361C27.938,21.369,26.727,21.09,26.355,22.3Z" transform="translate(0.007 0.012)" fill="#fff"/>
</svg>
