<svg id="sig-wht-eng" xmlns="http://www.w3.org/2000/svg" width="194.123" height="21.761" viewBox="0 0 194.123 21.761">
  <path id="Path_113" data-name="Path 113" d="M901.288,2.927C901.224,1.919,900.938,0,897.8,0a2.771,2.771,0,0,0-3.078,2.83,2.173,2.173,0,0,0,1.9,2.147l1.841.423c1.46.358,1.9.651,1.9,1.626,0,1.3-1.46,1.529-2.348,1.529-1.142,0-2.475-.488-2.475-2.147H894.4a2.824,2.824,0,0,0,.92,2.309,3.513,3.513,0,0,0,2.7.878c1.523,0,3.49-.585,3.49-2.765a2.344,2.344,0,0,0-2.031-2.44l-2.539-.585a1.161,1.161,0,0,1-1.047-1.171c0-1.4,1.269-1.594,2.031-1.594a1.971,1.971,0,0,1,2.221,1.854l1.143.033Zm4.03.748V2.765H904.27V.878H903.16V2.765h-.888v.943h.888V8.1c0,.813.222,1.431,1.333,1.431.127,0,.413-.065.825-.1V8.555h-.381c-.222,0-.666,0-.666-.52V3.676Zm2.063,1.106a1.308,1.308,0,0,1,1.492-1.3c1.047,0,1.523.39,1.523,1.073,0,.651-.317.781-.571.781l-1.809.228a1.979,1.979,0,0,0-1.967,2.082,1.9,1.9,0,0,0,2.031,1.919,2.953,2.953,0,0,0,2.348-1.073c.032.52.19,1.008,1.142,1.008a1.656,1.656,0,0,0,.6-.13V8.62a1.6,1.6,0,0,1-.349.065c-.222,0-.349-.13-.349-.39V4.424c0-1.724-1.9-1.854-2.412-1.854-1.618,0-2.634.618-2.7,2.212Zm2.983,2.342c0,.878-.984,1.561-2.031,1.561a1.032,1.032,0,0,1-1.174-1.171c0-.846.857-1.008,1.4-1.073,1.365-.2,1.618-.293,1.809-.423V7.123Zm5.331-3.448V2.765h-1.047V.878h-1.079V2.765h-.889v.943h.889V8.1c0,.813.222,1.431,1.3,1.431.127,0,.413-.065.825-.1V8.555h-.381c-.222,0-.666,0-.666-.52V3.676Zm2.19-.911H916.8V9.433h1.079V2.765Zm0-1.236V.26H916.8V1.529Zm6.41,3.123c0-.325-.159-2.082-2.475-2.082-1.269,0-2.475.651-2.475,2.114,0,.911.6,1.4,1.491,1.626l1.269.325c.92.228,1.3.423,1.3.943,0,.748-.7,1.073-1.491,1.073-1.555,0-1.682-.846-1.713-1.366h-1.047c.032.813.222,2.342,2.792,2.342a2.3,2.3,0,0,0,2.57-2.212c0-.911-.476-1.431-1.84-1.756l-1.111-.293c-.857-.228-1.174-.358-1.174-.878,0-.813.952-.943,1.3-.943,1.4,0,1.523.716,1.555,1.106Zm3.84-.976V2.765h-1.047V.878h-1.079V2.765h-.889v.943h.889V8.1c0,.813.222,1.431,1.333,1.431.127,0,.413-.065.825-.1V8.555h-.381c-.222,0-.666,0-.666-.52V3.676Zm2.19-.911h-1.111V9.433h1.111V2.765Zm0-1.236V.26h-1.111V1.529ZM937.3,2.765h-1.015v.943h-.032a2.173,2.173,0,0,0-1.936-1.138c-1.745,0-2.729,1.464-2.729,3.318,0,1.594.634,3.741,2.856,3.741a1.872,1.872,0,0,0,1.714-.911h.032v3.35h1.079l.032-9.3Zm-1.047,3.643c0,1.789-1.079,2.244-1.777,2.244-1.206,0-1.745-1.106-1.745-2.57,0-.846.1-2.5,1.777-2.5,1.587,0,1.745,1.724,1.745,2.83Zm7.9,3.025V2.765h-1.079V6.44c0,.976-.413,2.212-1.777,2.212-.7,0-1.269-.358-1.269-1.464V2.765h-1.111V7.546a1.947,1.947,0,0,0,2.126,2.082,2.124,2.124,0,0,0,2.063-1.2l.032.033v.976Zm6.092-2.114a1.648,1.648,0,0,1-1.682,1.3c-1.269,0-1.9-.813-1.9-2.179h4.76c0-2.374-.92-3.9-2.792-3.9-2.158,0-3.11,1.659-3.11,3.708,0,1.919,1.079,3.35,2.919,3.35a2.89,2.89,0,0,0,1.777-.455,2.78,2.78,0,0,0,1.142-1.822Zm-3.586-1.756a1.927,1.927,0,0,1,1.809-1.984c1.333,0,1.745.943,1.809,1.984Zm-44.457,9.53a3.4,3.4,0,0,0-3.681-2.993c-2.6,0-4.157,1.952-4.157,4.782,0,3.513,2,4.879,4.03,4.879a3.807,3.807,0,0,0,3.9-3.611h-1.174c-.412,2.114-1.777,2.5-2.539,2.5-2.221,0-2.951-1.659-2.951-3.806,0-2.407,1.3-3.643,2.919-3.643a2.347,2.347,0,0,1,2.507,1.887Zm2.38,1.789a1.308,1.308,0,0,1,1.491-1.3c1.047,0,1.523.39,1.523,1.073,0,.651-.317.748-.571.781l-1.809.228a1.979,1.979,0,0,0-1.967,2.082,1.9,1.9,0,0,0,2.031,1.919,2.952,2.952,0,0,0,2.348-1.073c.032.52.19,1.008,1.142,1.008a1.656,1.656,0,0,0,.6-.13v-.813a1.6,1.6,0,0,1-.349.065c-.222,0-.349-.13-.349-.39V16.524c0-1.724-1.9-1.854-2.412-1.854-1.618,0-2.634.618-2.7,2.212Zm3.015,2.309c0,.878-.984,1.561-2,1.561a1.032,1.032,0,0,1-1.174-1.171c0-.846.857-1.008,1.4-1.073,1.365-.2,1.618-.293,1.809-.423l-.032,1.106Zm8.25-2.212a2.079,2.079,0,0,0-2.285-2.309,2.348,2.348,0,0,0-1.968,1.138h-.032v-.943h-1.047v6.668H911.6V17.89c0-1.822,1.111-2.212,1.714-2.212,1.079,0,1.4.585,1.4,1.756v4.1h1.111l.032-4.554Zm2.57-.1a1.308,1.308,0,0,1,1.491-1.3c1.047,0,1.523.39,1.523,1.073,0,.651-.317.748-.571.781l-1.809.228a1.979,1.979,0,0,0-1.967,2.082,1.9,1.9,0,0,0,2.031,1.919,2.953,2.953,0,0,0,2.348-1.073c.031.52.19,1.008,1.142,1.008a1.656,1.656,0,0,0,.6-.13v-.813a1.6,1.6,0,0,1-.349.065c-.222,0-.349-.13-.349-.39V16.524c0-1.724-1.9-1.854-2.412-1.854-1.618,0-2.634.618-2.7,2.212Zm3.015,2.309c0,.878-.984,1.561-2.031,1.561a1.032,1.032,0,0,1-1.174-1.171c0-.846.857-1.008,1.4-1.073,1.365-.2,1.618-.293,1.809-.423v1.106Zm8.346-6.831H928.7v3.35l-.032.1a2.173,2.173,0,0,0-1.936-1.138c-1.714,0-2.7,1.464-2.7,3.318,0,1.594.635,3.741,2.856,3.741a1.9,1.9,0,0,0,1.841-1.106h.032v.911h1.047l-.032-9.173Zm-4.665,5.79c0-.846.1-2.5,1.777-2.5,1.587,0,1.745,1.756,1.745,2.83,0,1.789-1.079,2.244-1.777,2.244-1.174,0-1.745-1.106-1.745-2.57Zm7.14-1.269a1.309,1.309,0,0,1,1.491-1.3c1.047,0,1.523.39,1.523,1.073,0,.651-.317.748-.571.781l-1.809.228a1.98,1.98,0,0,0-1.967,2.082,1.9,1.9,0,0,0,2.031,1.919A2.953,2.953,0,0,0,935.3,20.59c.032.52.19,1.008,1.142,1.008a1.656,1.656,0,0,0,.6-.13v-.813a1.6,1.6,0,0,1-.349.065c-.222,0-.349-.13-.349-.39V16.524c0-1.724-1.9-1.854-2.412-1.854-1.618,0-2.634.618-2.7,2.212Zm3.015,2.309c0,.878-.984,1.561-2.031,1.561a1.032,1.032,0,0,1-1.174-1.171c0-.846.857-1.008,1.4-1.073,1.365-.2,1.618-.293,1.809-.423v1.106Z" transform="translate(-757.302)" fill="#fff"/>
  <path id="Path_114" data-name="Path 114" d="M432.011,2.927C431.948,1.919,431.662,0,428.521,0a2.77,2.77,0,0,0-3.078,2.83,2.173,2.173,0,0,0,1.9,2.147l1.84.423c1.46.358,1.9.651,1.9,1.626,0,1.3-1.46,1.529-2.348,1.529-1.142,0-2.475-.488-2.475-2.147h-1.142a2.824,2.824,0,0,0,.92,2.309,3.571,3.571,0,0,0,2.7.878c1.523,0,3.491-.585,3.491-2.765a2.319,2.319,0,0,0-2.031-2.44l-2.539-.585c-.539-.13-1.047-.39-1.047-1.171,0-1.4,1.269-1.594,2.031-1.594a1.971,1.971,0,0,1,2.221,1.854l1.142.033Zm4.03.748V2.765h-1.047V.878h-1.111V2.765H433v.943h.889V8.1c0,.813.222,1.431,1.333,1.431.127,0,.413-.065.825-.1V8.555h-.381c-.222,0-.666,0-.666-.52V3.676Zm2.031,1.106a1.308,1.308,0,0,1,1.491-1.3c1.047,0,1.523.39,1.523,1.073,0,.651-.317.781-.571.781l-1.809.228a1.979,1.979,0,0,0-1.967,2.082,1.9,1.9,0,0,0,2.031,1.919,2.953,2.953,0,0,0,2.348-1.073c.032.52.19,1.008,1.142,1.008a1.656,1.656,0,0,0,.6-.13V8.62a1.6,1.6,0,0,1-.349.065c-.222,0-.349-.13-.349-.39V4.424c0-1.724-1.9-1.854-2.412-1.854-1.618,0-2.634.618-2.7,2.212Zm3.015,2.342c0,.878-.984,1.561-2,1.561a1.032,1.032,0,0,1-1.174-1.171c0-.846.857-1.008,1.4-1.073,1.364-.2,1.618-.293,1.809-.423l-.032,1.106Zm5.331-3.448V2.765h-1.047V.878h-1.079V2.765H443.4v.943h.888V8.1c0,.813.222,1.431,1.333,1.431.127,0,.413-.065.825-.1V8.555h-.381c-.222,0-.666,0-.666-.52V3.676Zm2.19-.911H447.5V9.433h1.111V2.765Zm0-1.236V.26H447.5V1.529Zm6.378,3.123c0-.325-.159-2.082-2.475-2.082a2.186,2.186,0,0,0-2.475,2.114c0,.911.6,1.4,1.491,1.626l1.269.325c.92.228,1.3.423,1.3.943,0,.748-.7,1.073-1.491,1.073-1.555,0-1.682-.846-1.714-1.366h-1.047c.032.813.222,2.342,2.792,2.342a2.3,2.3,0,0,0,2.57-2.212c0-.911-.476-1.431-1.84-1.756l-1.079-.293c-.857-.228-1.174-.358-1.174-.878,0-.813.952-.943,1.3-.943,1.4,0,1.523.716,1.555,1.106Zm3.871-.976V2.765H457.81V.878h-1.079V2.765h-.888v.943h.888V8.1c0,.813.222,1.431,1.333,1.431.127,0,.412-.065.825-.1V8.555h-.381c-.222,0-.666,0-.666-.52V3.676Zm2.19-.911h-1.079V9.433h1.079V2.765Zm0-1.236V.26h-1.079V1.529Zm6.759,3.48a2.378,2.378,0,0,0-2.443-2.44c-2.158,0-3.11,1.659-3.11,3.708,0,1.919,1.079,3.35,2.919,3.35a2.63,2.63,0,0,0,2.666-2.537H466.79c-.19,1.008-.825,1.594-1.555,1.594-1.491,0-1.777-1.431-1.777-2.57,0-1.171.444-2.5,1.777-2.5a1.477,1.477,0,0,1,1.555,1.431l1.015-.033Zm5.87-.358c0-.325-.159-2.082-2.475-2.082a2.186,2.186,0,0,0-2.475,2.114c0,.911.6,1.4,1.491,1.626l1.269.325c.92.228,1.3.423,1.3.943,0,.748-.7,1.073-1.491,1.073-1.555,0-1.682-.846-1.714-1.366h-1.047c.032.813.222,2.342,2.792,2.342a2.3,2.3,0,0,0,2.57-2.212c0-.911-.476-1.431-1.84-1.756l-1.111-.293c-.857-.228-1.174-.358-1.174-.878,0-.813.952-.943,1.3-.943,1.4,0,1.523.716,1.555,1.106ZM432.932,15.093a3.4,3.4,0,0,0-3.681-2.993c-2.6,0-4.157,1.952-4.157,4.782,0,3.513,2,4.879,4.03,4.879a3.807,3.807,0,0,0,3.9-3.611h-1.174c-.413,2.114-1.777,2.5-2.539,2.5-2.221,0-2.951-1.659-2.951-3.806,0-2.407,1.3-3.643,2.919-3.643a2.347,2.347,0,0,1,2.507,1.887Zm2.38,1.789a1.309,1.309,0,0,1,1.491-1.3c1.047,0,1.523.39,1.523,1.073,0,.651-.317.748-.571.781l-1.809.228a1.979,1.979,0,0,0-1.967,2.082,1.9,1.9,0,0,0,2.031,1.919,2.952,2.952,0,0,0,2.348-1.073c.032.52.19,1.008,1.142,1.008a1.656,1.656,0,0,0,.6-.13v-.813a1.6,1.6,0,0,1-.349.065c-.222,0-.349-.13-.349-.39V16.524c0-1.724-1.9-1.854-2.412-1.854-1.618,0-2.634.618-2.7,2.212Zm2.983,2.309c0,.878-.984,1.561-2.031,1.561a1.032,1.032,0,0,1-1.174-1.171c0-.846.857-1.008,1.4-1.073,1.364-.2,1.618-.293,1.809-.423v1.106Zm8.25-2.212a2.079,2.079,0,0,0-2.285-2.309,2.4,2.4,0,0,0-1.967,1.138h-.032v-.943h-1.047v6.668h1.079V17.89c0-1.822,1.111-2.212,1.714-2.212,1.079,0,1.4.585,1.4,1.756v4.1h1.079l.063-4.554Zm2.6-.1a1.308,1.308,0,0,1,1.491-1.3c1.047,0,1.523.39,1.523,1.073,0,.651-.317.748-.571.781l-1.809.228a1.979,1.979,0,0,0-1.967,2.082,1.9,1.9,0,0,0,2.031,1.919,2.953,2.953,0,0,0,2.348-1.073c.032.52.19,1.008,1.142,1.008a1.656,1.656,0,0,0,.6-.13v-.813a1.6,1.6,0,0,1-.349.065c-.222,0-.349-.13-.349-.39V16.524c0-1.724-1.9-1.854-2.412-1.854-1.618,0-2.634.618-2.7,2.212Zm2.983,2.309c0,.878-.984,1.561-2.031,1.561a1.032,1.032,0,0,1-1.174-1.171c0-.846.857-1.008,1.4-1.073,1.364-.2,1.618-.293,1.809-.423v1.106Zm8.346-6.831H459.4v3.35l-.032.1a2.173,2.173,0,0,0-1.936-1.138c-1.714,0-2.7,1.464-2.7,3.318,0,1.594.635,3.741,2.856,3.741a1.924,1.924,0,0,0,1.84-1.106h.032v.911h1.047l-.032-9.173Zm-4.633,5.79c0-.846.1-2.5,1.777-2.5,1.587,0,1.745,1.756,1.745,2.83,0,1.789-1.079,2.244-1.777,2.244-1.174,0-1.745-1.106-1.745-2.57Zm7.14-1.269a1.308,1.308,0,0,1,1.491-1.3c1.047,0,1.523.39,1.523,1.073,0,.651-.317.748-.571.781l-1.809.228a1.979,1.979,0,0,0-1.967,2.082,1.9,1.9,0,0,0,2.031,1.919,2.952,2.952,0,0,0,2.348-1.073c.032.52.19,1.008,1.142,1.008a1.656,1.656,0,0,0,.6-.13v-.813a1.6,1.6,0,0,1-.349.065c-.222,0-.349-.13-.349-.39V16.524c0-1.724-1.9-1.854-2.412-1.854-1.618,0-2.634.618-2.7,2.212Zm2.983,2.309c0,.878-.984,1.561-2.031,1.561a1.032,1.032,0,0,1-1.174-1.171c0-.846.857-1.008,1.4-1.073,1.364-.2,1.618-.293,1.809-.423v1.106Z" transform="translate(-360.078)" fill="#fff"/>
  <g id="Flag" transform="translate(0 0.095)">
    <g id="Group_29" data-name="Group 29">
      <g id="Group_28" data-name="Group 28">
        <path id="Path_115" data-name="Path 115" d="M95.923,29.644s-.1-3.692-.1-4.084.286-.49.666-.392,3.744.784,3.744.784-.286-.784-.476-1.274c-.19-.588.1-.686.19-.784s3.744-3.3,3.744-3.3l-.571-.294a.45.45,0,0,1-.19-.686c0-.2.571-2.32.571-2.32s-1.523.294-1.9.392a.439.439,0,0,1-.476-.294c-.1-.2-.476-1.176-.476-1.176s-1.9,2.124-1.9,2.222c-.381.294-.762.1-.666-.294,0-.392.952-4.77.952-4.77s-1.047.686-1.333.882c-.381.2-.476.2-.666-.2-.19-.294-1.428-2.908-1.428-2.908h0s-1.333,2.614-1.428,2.908c-.19.392-.381.392-.762.2-.286-.2-1.333-.882-1.333-.882s.952,4.378.952,4.77c.1.392-.286.588-.571.294-.1-.1-2-2.222-2-2.222s-.381.98-.476,1.176a.439.439,0,0,1-.476.294c-.381-.1-2-.392-2-.392s.666,2.124.762,2.32c0,.2.1.49-.286.686l-.7.327s3.649,3.2,3.744,3.3.381.2.19.784c-.19.49-.476,1.274-.476,1.274S94.21,25.3,94.5,25.2c.381-.1.666,0,.666.392s-.1,4.084-.1,4.084l.857-.033Z" transform="translate(-74.377 -9.598)" fill="#ed1c24"/>
        <path id="Path_116" data-name="Path 116" d="M10.6,22.309V.643H0V22.309Z" transform="translate(0 -0.643)" fill="#ed1c24"/>
        <path id="Path_117" data-name="Path 117" d="M224.25,22.309V.643h-10.63V22.309Z" transform="translate(-182.014 -0.643)" fill="#ed1c24"/>
      </g>
    </g>
  </g>
</svg>
